2011.05.03 15:39 B C:\Inetpub\wwwroot\budget_ash\PEAR\PEAR\Installer\Role.php --> www.infotechconsultants.co.in /httpdocs/janjaati/PEAR/PEAR/Installer Role.php
2011.06.18 20:05 B C:\Inetpub\wwwroot\gbkcfashions-latest\PEAR\PEAR\Installer\Role.php --> www.gbkcfashions.com /subdomains/apps/httpdocs/PEAR/PEAR/Installer Role.php
2011.06.18 20:05 B C:\Inetpub\wwwroot\gbkcfashions-latest\PEAR\PEAR\Installer\WS_FTP.LOG --> www.gbkcfashions.com /subdomains/apps/httpdocs/PEAR/PEAR/Installer WS_FTP.LOG
