2011.05.03 15:46 B C:\Inetpub\wwwroot\budget_ash\PEAR\OLE.php --> www.infotechconsultants.co.in /httpdocs/janjaati/PEAR OLE.php
2011.05.03 15:46 B C:\Inetpub\wwwroot\budget_ash\PEAR\PEAR.php --> www.infotechconsultants.co.in /httpdocs/janjaati/PEAR PEAR.php
2011.05.03 15:46 B C:\Inetpub\wwwroot\budget_ash\PEAR\System.php --> www.infotechconsultants.co.in /httpdocs/janjaati/PEAR System.php
2011.06.18 20:11 B C:\Inetpub\wwwroot\gbkcfashions-latest\PEAR\OLE.php --> www.gbkcfashions.com /subdomains/apps/httpdocs/PEAR OLE.php
2011.06.18 20:11 B C:\Inetpub\wwwroot\gbkcfashions-latest\PEAR\PEAR.php --> www.gbkcfashions.com /subdomains/apps/httpdocs/PEAR PEAR.php
2011.06.18 20:11 B C:\Inetpub\wwwroot\gbkcfashions-latest\PEAR\System.php --> www.gbkcfashions.com /subdomains/apps/httpdocs/PEAR System.php
2011.06.18 20:11 B C:\Inetpub\wwwroot\gbkcfashions-latest\PEAR\WS_FTP.LOG --> www.gbkcfashions.com /subdomains/apps/httpdocs/PEAR WS_FTP.LOG
