2011.05.03 15:45 B C:\Inetpub\wwwroot\budget_ash\PEAR\Spreadsheet\Excel\Writer.php --> www.infotechconsultants.co.in /httpdocs/janjaati/PEAR/Spreadsheet/Excel Writer.php
2011.06.18 20:11 B C:\Inetpub\wwwroot\gbkcfashions-latest\PEAR\Spreadsheet\Excel\Writer.php --> www.gbkcfashions.com /subdomains/apps/httpdocs/PEAR/Spreadsheet/Excel Writer.php
2011.06.18 20:11 B C:\Inetpub\wwwroot\gbkcfashions-latest\PEAR\Spreadsheet\Excel\WS_FTP.LOG --> www.gbkcfashions.com /subdomains/apps/httpdocs/PEAR/Spreadsheet/Excel WS_FTP.LOG
