2011.05.03 15:41 B C:\Inetpub\wwwroot\budget_ash\PEAR\PEAR\REST\10.php --> www.infotechconsultants.co.in /httpdocs/janjaati/PEAR/PEAR/REST 10.php
2011.05.03 15:41 B C:\Inetpub\wwwroot\budget_ash\PEAR\PEAR\REST\11.php --> www.infotechconsultants.co.in /httpdocs/janjaati/PEAR/PEAR/REST 11.php
2011.05.03 15:41 B C:\Inetpub\wwwroot\budget_ash\PEAR\PEAR\REST\13.php --> www.infotechconsultants.co.in /httpdocs/janjaati/PEAR/PEAR/REST 13.php
2011.06.18 20:06 B C:\Inetpub\wwwroot\gbkcfashions-latest\PEAR\PEAR\REST\10.php --> www.gbkcfashions.com /subdomains/apps/httpdocs/PEAR/PEAR/REST 10.php
2011.06.18 20:06 B C:\Inetpub\wwwroot\gbkcfashions-latest\PEAR\PEAR\REST\11.php --> www.gbkcfashions.com /subdomains/apps/httpdocs/PEAR/PEAR/REST 11.php
2011.06.18 20:07 B C:\Inetpub\wwwroot\gbkcfashions-latest\PEAR\PEAR\REST\13.php --> www.gbkcfashions.com /subdomains/apps/httpdocs/PEAR/PEAR/REST 13.php
2011.06.18 20:07 B C:\Inetpub\wwwroot\gbkcfashions-latest\PEAR\PEAR\REST\WS_FTP.LOG --> www.gbkcfashions.com /subdomains/apps/httpdocs/PEAR/PEAR/REST WS_FTP.LOG
