2011.05.03 15:45 B C:\Inetpub\wwwroot\budget_ash\PEAR\Spreadsheet\Excel\Writer\BIFFwriter.php --> www.infotechconsultants.co.in /httpdocs/janjaati/PEAR/Spreadsheet/Excel/Writer BIFFwriter.php
2011.05.03 15:45 B C:\Inetpub\wwwroot\budget_ash\PEAR\Spreadsheet\Excel\Writer\Format.php --> www.infotechconsultants.co.in /httpdocs/janjaati/PEAR/Spreadsheet/Excel/Writer Format.php
2011.05.03 15:45 B C:\Inetpub\wwwroot\budget_ash\PEAR\Spreadsheet\Excel\Writer\Parser.php --> www.infotechconsultants.co.in /httpdocs/janjaati/PEAR/Spreadsheet/Excel/Writer Parser.php
2011.05.03 15:45 B C:\Inetpub\wwwroot\budget_ash\PEAR\Spreadsheet\Excel\Writer\Validator.php --> www.infotechconsultants.co.in /httpdocs/janjaati/PEAR/Spreadsheet/Excel/Writer Validator.php
2011.05.03 15:45 B C:\Inetpub\wwwroot\budget_ash\PEAR\Spreadsheet\Excel\Writer\Workbook.php --> www.infotechconsultants.co.in /httpdocs/janjaati/PEAR/Spreadsheet/Excel/Writer Workbook.php
2011.05.03 15:45 B C:\Inetpub\wwwroot\budget_ash\PEAR\Spreadsheet\Excel\Writer\Worksheet.php --> www.infotechconsultants.co.in /httpdocs/janjaati/PEAR/Spreadsheet/Excel/Writer Worksheet.php
2011.06.18 20:10 B C:\Inetpub\wwwroot\gbkcfashions-latest\PEAR\Spreadsheet\Excel\Writer\BIFFwriter.php --> www.gbkcfashions.com /subdomains/apps/httpdocs/PEAR/Spreadsheet/Excel/Writer BIFFwriter.php
2011.06.18 20:10 B C:\Inetpub\wwwroot\gbkcfashions-latest\PEAR\Spreadsheet\Excel\Writer\Format.php --> www.gbkcfashions.com /subdomains/apps/httpdocs/PEAR/Spreadsheet/Excel/Writer Format.php
2011.06.18 20:10 B C:\Inetpub\wwwroot\gbkcfashions-latest\PEAR\Spreadsheet\Excel\Writer\Parser.php --> www.gbkcfashions.com /subdomains/apps/httpdocs/PEAR/Spreadsheet/Excel/Writer Parser.php
2011.06.18 20:10 B C:\Inetpub\wwwroot\gbkcfashions-latest\PEAR\Spreadsheet\Excel\Writer\Validator.php --> www.gbkcfashions.com /subdomains/apps/httpdocs/PEAR/Spreadsheet/Excel/Writer Validator.php
2011.06.18 20:10 B C:\Inetpub\wwwroot\gbkcfashions-latest\PEAR\Spreadsheet\Excel\Writer\Workbook.php --> www.gbkcfashions.com /subdomains/apps/httpdocs/PEAR/Spreadsheet/Excel/Writer Workbook.php
2011.06.18 20:10 B C:\Inetpub\wwwroot\gbkcfashions-latest\PEAR\Spreadsheet\Excel\Writer\Worksheet.php --> www.gbkcfashions.com /subdomains/apps/httpdocs/PEAR/Spreadsheet/Excel/Writer Worksheet.php
2011.06.18 20:10 B C:\Inetpub\wwwroot\gbkcfashions-latest\PEAR\Spreadsheet\Excel\Writer\WS_FTP.LOG --> www.gbkcfashions.com /subdomains/apps/httpdocs/PEAR/Spreadsheet/Excel/Writer WS_FTP.LOG
