2011.05.03 15:40 B C:\Inetpub\wwwroot\budget_ash\PEAR\PEAR\PackageFile\Parser\v1.php --> www.infotechconsultants.co.in /httpdocs/janjaati/PEAR/PEAR/PackageFile/Parser v1.php
2011.05.03 15:40 B C:\Inetpub\wwwroot\budget_ash\PEAR\PEAR\PackageFile\Parser\v2.php --> www.infotechconsultants.co.in /httpdocs/janjaati/PEAR/PEAR/PackageFile/Parser v2.php
2011.06.18 20:05 B C:\Inetpub\wwwroot\gbkcfashions-latest\PEAR\PEAR\PackageFile\Parser\v1.php --> www.gbkcfashions.com /subdomains/apps/httpdocs/PEAR/PEAR/PackageFile/Parser v1.php
2011.06.18 20:05 B C:\Inetpub\wwwroot\gbkcfashions-latest\PEAR\PEAR\PackageFile\Parser\v2.php --> www.gbkcfashions.com /subdomains/apps/httpdocs/PEAR/PEAR/PackageFile/Parser v2.php
2011.06.18 20:06 B C:\Inetpub\wwwroot\gbkcfashions-latest\PEAR\PEAR\PackageFile\Parser\WS_FTP.LOG --> www.gbkcfashions.com /subdomains/apps/httpdocs/PEAR/PEAR/PackageFile/Parser WS_FTP.LOG
