2011.05.03 15:38 B C:\Inetpub\wwwroot\budget_ash\PEAR\PEAR\Frontend\CLI.php --> www.infotechconsultants.co.in /httpdocs/janjaati/PEAR/PEAR/Frontend CLI.php
2011.06.18 20:04 B C:\Inetpub\wwwroot\gbkcfashions-latest\PEAR\PEAR\Frontend\CLI.php --> www.gbkcfashions.com /subdomains/apps/httpdocs/PEAR/PEAR/Frontend CLI.php
2011.06.18 20:04 B C:\Inetpub\wwwroot\gbkcfashions-latest\PEAR\PEAR\Frontend\WS_FTP.LOG --> www.gbkcfashions.com /subdomains/apps/httpdocs/PEAR/PEAR/Frontend WS_FTP.LOG
